[
  {
    "model": "workouts.exercise",
    "pk": 1,
    "fields": {
      "name": "Push-up",
      "description": "A push-up (or press-up in British English) is a common calisthenics exercise beginning from the prone position.",
      "unit": "reps"
    }
  },
  {
    "model": "workouts.exercise",
    "pk": 2,
    "fields": {
      "name": "Crunch",
      "description": "The crunch is one of the most popular abdominal exercises.",
      "unit": "reps"
    }
  },
  {
    "model": "workouts.exercise",
    "pk": 3,
    "fields": {
      "name": "Plank",
      "description": "The plank is an isometric core strength exercise that involves maintaining a position similar to a push-up for the maximum possible time.",
      "unit": "seconds"
    }
  },
  {
    "model": "users.user",
    "pk": 1,
    "fields": {
      "password": "pbkdf2_sha256$216000$3YPycW73BCQg$3b5Moc0k5jDAjLQ5r1wYT8ICbYpjKQBsPpDMVtw3/X4=",
      "last_login": "2021-03-09T13:19:39.390Z",
      "is_superuser": true,
      "username": "admin",
      "first_name": "",
      "last_name": "",
      "email": "admin@admin.me",
      "is_staff": true,
      "is_active": true,
      "date_joined": "2021-03-09T13:16:49.569Z",
      "coach": null,
      "phone_number": "",
      "country": "",
      "city": "",
      "street_address": "",
      "groups": [],
      "user_permissions": []
    }
  },
  {
    "model": "facilities.facility",
    "pk": 1,
    "fields": {
      "name": "Dragvoll",
      "date": "2021-03-09",
      "description": "Lorem ipsum dolor sit amet, consectetur adipiscing elit. In non lacinia sapien. Donec a ultricies erat. Morbi volutpat urna ac enim viverra, vulputate porttitor quam lacinia. Vestibulum id maximus nulla, sed euismod diam. Vivamus vitae orci nisi. Nam vel metus sed enim venenatis tempus. Cras fermentum ac lorem id cursus. Mauris in lorem gravida, facilisis dui vel, posuere orci. Donec a urna eget neque fringilla maximus.\r\n\r\nInteger in nisi finibus, volutpat massa eu, elementum enim. Nulla tempor nunc in nunc feugiat, at tincidunt lacus lacinia. Donec sagittis est pretium eros scelerisque dictum. Donec sed molestie diam. Ut eget lorem quis massa sagittis sagittis ut in augue. Maecenas non metus vitae sem tincidunt posuere. Morbi id sapien ac massa ullamcorper vulputate. Pellentesque rhoncus vestibulum leo, ac porta ipsum.",
      "latitude": "63.40678",
      "longitude": "10.47414",
      "image1": "https://www.sit.no/sites/default/files/_S9A8069_0.jpg",
      "image2": "https://www.sit.no/sites/default/files/_S9A8069_0.jpg",
      "image3": "https://www.sit.no/sites/default/files/_S9A8069_0.jpg",
      "image4": "https://www.sit.no/sites/default/files/_S9A8069_0.jpg",
      "image5": "https://www.sit.no/sites/default/files/_S9A8069_0.jpg"
    }
  },
  {
    "model": "facilities.facility",
    "pk": 2,
    "fields": {
      "name": "Moholt",
      "date": "2021-03-09",
      "description": "Lorem ipsum dolor sit amet, consectetur adipiscing elit. In non lacinia sapien. Donec a ultricies erat. Morbi volutpat urna ac enim viverra, vulputate porttitor quam lacinia. Vestibulum id maximus nulla, sed euismod diam. Vivamus vitae orci nisi. Nam vel metus sed enim venenatis tempus. Cras fermentum ac lorem id cursus. Mauris in lorem gravida, facilisis dui vel, posuere orci. Donec a urna eget neque fringilla maximus.\r\n\r\nInteger in nisi finibus, volutpat massa eu, elementum enim. Nulla tempor nunc in nunc feugiat, at tincidunt lacus lacinia. Donec sagittis est pretium eros scelerisque dictum. Donec sed molestie diam. Ut eget lorem quis massa sagittis sagittis ut in augue. Maecenas non metus vitae sem tincidunt posuere. Morbi id sapien ac massa ullamcorper vulputate. Pellentesque rhoncus vestibulum leo, ac porta ipsum.",
      "latitude": "63.41163",
      "longitude": "10.43298",
      "image1": "https://www.sit.no/sites/default/files/_S9A8069_0.jpg",
      "image2": "https://www.sit.no/sites/default/files/_S9A8069_0.jpg",
      "image3": "https://www.sit.no/sites/default/files/_S9A8069_0.jpg",
      "image4": "https://www.sit.no/sites/default/files/_S9A8069_0.jpg",
      "image5": "https://www.sit.no/sites/default/files/_S9A8069_0.jpg"
    }
  },
  {
    "model": "facilities.facility",
    "pk": 3,
    "fields": {
      "name": "Sit Portalen",
      "date": "2021-03-09",
      "description": "Lorem ipsum dolor sit amet, consectetur adipiscing elit. In non lacinia sapien. Donec a ultricies erat. Morbi volutpat urna ac enim viverra, vulputate porttitor quam lacinia. Vestibulum id maximus nulla, sed euismod diam. Vivamus vitae orci nisi. Nam vel metus sed enim venenatis tempus. Cras fermentum ac lorem id cursus. Mauris in lorem gravida, facilisis dui vel, posuere orci. Donec a urna eget neque fringilla maximus.\r\n\r\nInteger in nisi finibus, volutpat massa eu, elementum enim. Nulla tempor nunc in nunc feugiat, at tincidunt lacus lacinia. Donec sagittis est pretium eros scelerisque dictum. Donec sed molestie diam. Ut eget lorem quis massa sagittis sagittis ut in augue. Maecenas non metus vitae sem tincidunt posuere. Morbi id sapien ac massa ullamcorper vulputate. Pellentesque rhoncus vestibulum leo, ac porta ipsum.",
      "latitude": "63.43644",
      "longitude": "10.41557",
      "image1": "https://www.sit.no/sites/default/files/_S9A8069_0.jpg",
      "image2": "https://www.sit.no/sites/default/files/_S9A8069_0.jpg",
      "image3": "https://www.sit.no/sites/default/files/_S9A8069_0.jpg",
      "image4": "https://www.sit.no/sites/default/files/_S9A8069_0.jpg",
      "image5": "https://www.sit.no/sites/default/files/_S9A8069_0.jpg"
    }
  },
  {
    "model": "facilities.facility",
    "pk": 4,
    "fields": {
      "name": "Gløshaugen",
      "date": "2021-03-09",
      "description": "Lorem ipsum dolor sit amet, consectetur adipiscing elit. In non lacinia sapien. Donec a ultricies erat. Morbi volutpat urna ac enim viverra, vulputate porttitor quam lacinia. Vestibulum id maximus nulla, sed euismod diam. Vivamus vitae orci nisi. Nam vel metus sed enim venenatis tempus. Cras fermentum ac lorem id cursus. Mauris in lorem gravida, facilisis dui vel, posuere orci. Donec a urna eget neque fringilla maximus.\r\n\r\nInteger in nisi finibus, volutpat massa eu, elementum enim. Nulla tempor nunc in nunc feugiat, at tincidunt lacus lacinia. Donec sagittis est pretium eros scelerisque dictum. Donec sed molestie diam. Ut eget lorem quis massa sagittis sagittis ut in augue. Maecenas non metus vitae sem tincidunt posuere. Morbi id sapien ac massa ullamcorper vulputate. Pellentesque rhoncus vestibulum leo, ac porta ipsum.",
      "latitude": "63.42101",
      "longitude": "10.40461",
      "image1": "https://www.sit.no/sites/default/files/_S9A8069_0.jpg",
      "image2": "https://www.sit.no/sites/default/files/_S9A8069_0.jpg",
      "image3": "https://www.sit.no/sites/default/files/_S9A8069_0.jpg",
      "image4": "https://www.sit.no/sites/default/files/_S9A8069_0.jpg",
      "image5": "https://www.sit.no/sites/default/files/_S9A8069_0.jpg"
    }
  },
  {
    "model": "facilities.facility",
    "pk": 5,
    "fields": {
      "name": "Sample",
      "date": "2021-03-09",
      "description": "Sample",
      "latitude": "62.99998",
      "longitude": "10.40000",
      "image1": "https://www.sit.no/sites/default/files/_S9A8069_0.jpg",
      "image2": "https://www.sit.no/sites/default/files/_S9A8069_0.jpg",
      "image3": "https://www.sit.no/sites/default/files/_S9A8069_0.jpg",
      "image4": "https://www.sit.no/sites/default/files/_S9A8069_0.jpg",
      "image5": "https://www.sit.no/sites/default/files/_S9A8069_0.jpg"
    }
  },
  {
    "model": "facilities.facility",
    "pk": 6,
    "fields": {
      "name": "Sample 2",
      "date": "2021-03-09",
      "description": "Sample",
      "latitude": "62.99998",
      "longitude": "10.40000",
      "image1": "https://www.sit.no/sites/default/files/_S9A8069_0.jpg",
      "image2": "https://www.sit.no/sites/default/files/_S9A8069_0.jpg",
      "image3": "https://www.sit.no/sites/default/files/_S9A8069_0.jpg",
      "image4": "https://www.sit.no/sites/default/files/_S9A8069_0.jpg",
      "image5": "https://www.sit.no/sites/default/files/_S9A8069_0.jpg"
    }
  }
]
